{
  "kind": "collectionType",
  "collectionName": "orders",
  "info": {
    "singularName": "order",
    "pluralName": "orders",
    "displayName": "Order",
    "description": ""
  },
  "options": {
    "draftAndPublish": true
  },
  "pluginOptions": {},
  "attributes": {
    "invoice_number": {
      "type": "string"
    },
    "customer": {
      "type": "relation",
      "relation": "oneToOne",
      "target": "api::customer.customer"
    },
    "total_price": {
      "type": "string"
    }
  }
}
